\relax 
\@writefile{toc}{\contentsline {chapter}{\numberline {IV}Implementasi dan Pengujian}{46}}
\@writefile{lof}{\addvspace {10\p@ }}
\@writefile{lot}{\addvspace {10\p@ }}
\@writefile{toc}{\contentsline {section}{\numberline {4.1}Implementasi Sistem}{46}}
\@writefile{lof}{\contentsline {figure}{\numberline {4.1}{\ignorespaces Halaman Dashboard Admin}}{46}}
\newlabel{fig:Imp-2}{{4.1}{46}}
\@writefile{lof}{\contentsline {figure}{\numberline {4.2}{\ignorespaces Halaman Dashboard Pengguna}}{47}}
\newlabel{fig:Imp-3}{{4.2}{47}}
\@writefile{toc}{\contentsline {section}{\numberline {4.2}Skenario Pengujian}{47}}
\@writefile{toc}{\contentsline {section}{\numberline {4.3}Hasil Implementasi}{47}}
\@writefile{toc}{\contentsline {subsection}{\numberline {4.3.1}Hasil Rekomendasi Model E-Learning Readiness}{48}}
\@writefile{lot}{\contentsline {table}{\numberline {4.1}{\ignorespaces \textit  {Matrix Comparisons} pada Tingkat Kriteria}}{48}}
\newlabel{tab:pairwise-kriteria}{{4.1}{48}}
\@writefile{lot}{\contentsline {table}{\numberline {4.2}{\ignorespaces \textit  {Fuzzy Matrix Comparisons} pada Tingkat Kriteria}}{48}}
\newlabel{tab:pairwise-fuzzy-kriteria}{{4.2}{48}}
\@writefile{lot}{\contentsline {table}{\numberline {4.3}{\ignorespaces \textit  {Eigen Value} pada Tingkat Kriteria}}{48}}
\newlabel{tab:bobot-kriteria}{{4.3}{48}}
\@writefile{lot}{\contentsline {table}{\numberline {4.4}{\ignorespaces \textit  {Matrix Comparisons} pada Sub Kriteria \textit  {Readiness Factor}}}{49}}
\newlabel{tab:pairwise-subkriteria-RF}{{4.4}{49}}
\@writefile{lot}{\contentsline {table}{\numberline {4.5}{\ignorespaces \textit  {Fuzzy Matrix Comparisons} pada Sub Kriteria \textit  {Readiness Factor}}}{49}}
\newlabel{tab:pairwise-fuzzy-subkriteria-RF}{{4.5}{49}}
\@writefile{lot}{\contentsline {table}{\numberline {4.6}{\ignorespaces \textit  {Eigen Value} pada Sub Kriteria \textit  {Readiness Factor}}}{49}}
\newlabel{tab:bobot-subkriteria-RF}{{4.6}{49}}
\@writefile{lot}{\contentsline {table}{\numberline {4.7}{\ignorespaces \textit  {Matrix Comparisons} pada Sub Kriteria \textit  {Assessment Goals}}}{50}}
\newlabel{tab:pairwise-subkriteria-AG}{{4.7}{50}}
\@writefile{lot}{\contentsline {table}{\numberline {4.8}{\ignorespaces \textit  {Fuzzy Matrix Comparisons} pada Sub Kriteria \textit  {Assessment Goals}}}{50}}
\newlabel{tab:pairwise-fuzzy-subkriteria-AG}{{4.8}{50}}
\@writefile{lot}{\contentsline {table}{\numberline {4.9}{\ignorespaces \textit  {Eigen Value} pada Sub Kriteria \textit  {Assessment Goals}}}{50}}
\newlabel{tab:bobot-subkriteria-AG}{{4.9}{50}}
\newlabel{RF4}{51}
\@writefile{lot}{\contentsline {table}{\numberline {4.10}{\ignorespaces Hasil Perhitungan Alternatif}}{51}}
\newlabel{tab:hasil}{{4.10}{51}}
\citation{doculanelearning}
\@writefile{toc}{\contentsline {subsection}{\numberline {4.3.2}Hasil Evaluasi E-Learning Readiness}{52}}
\@writefile{lot}{\contentsline {table}{\numberline {4.11}{\ignorespaces Tabel Persebaran Populasi Responden}}{52}}
\newlabel{tab:demographics}{{4.11}{52}}
\@writefile{lot}{\contentsline {table}{\numberline {4.12}{\ignorespaces Tabel Indikator Pengujian Mahasiswa}}{52}}
\newlabel{tab:student}{{4.12}{52}}
\citation{aydin2005measuring}
\citation{aydin2005measuring}
\@writefile{lot}{\contentsline {table}{\numberline {4.13}{\ignorespaces Tabel Indikator Pengujian Dosen}}{53}}
\newlabel{tab:lecturer}{{4.13}{53}}
\@writefile{lot}{\contentsline {table}{\numberline {4.14}{\ignorespaces Tabel Indikator Pengujian Divisi Kepala}}{53}}
\newlabel{tab:head}{{4.14}{53}}
\@writefile{lof}{\contentsline {figure}{\numberline {4.3}{\ignorespaces Skala Kesiapan Aydin dan Tasci \cite  {aydin2005measuring}}}{53}}
\newlabel{fig:scale}{{4.3}{53}}
\@writefile{toc}{\contentsline {subsubsection}{Evaluasi Pihak PJJ}{53}}
\gdef \LT@v {\LT@entry 
    {3}{27.02635pt}\LT@entry 
    {3}{178.84879pt}\LT@entry 
    {3}{76.41869pt}\LT@entry 
    {3}{104.87144pt}}
\gdef \LT@vi {\LT@entry 
    {3}{27.02635pt}\LT@entry 
    {3}{178.84879pt}\LT@entry 
    {3}{76.41869pt}\LT@entry 
    {3}{104.87144pt}}
\@writefile{lot}{\contentsline {table}{\numberline {4.15}{Tabel Infrastruktur TIK}}{54}}
\newlabel{tab:readiness-head-1}{{4.15}{54}}
\@writefile{lot}{\contentsline {table}{\numberline {4.16}{Dukungan Administrasi}}{54}}
\newlabel{tab:readiness-head-2}{{4.16}{54}}
\gdef \LT@vii {\LT@entry 
    {3}{27.02635pt}\LT@entry 
    {3}{178.84879pt}\LT@entry 
    {3}{76.41869pt}\LT@entry 
    {3}{104.87144pt}}
\@writefile{lot}{\contentsline {table}{\numberline {4.17}{Dukungan Sumber Daya}}{55}}
\newlabel{tab:readiness-head-3}{{4.17}{55}}
\gdef \LT@viii {\LT@entry 
    {3}{27.02635pt}\LT@entry 
    {3}{178.84879pt}\LT@entry 
    {3}{76.41869pt}\LT@entry 
    {3}{104.87144pt}}
\gdef \LT@ix {\LT@entry 
    {3}{27.02635pt}\LT@entry 
    {3}{178.84879pt}\LT@entry 
    {3}{76.41869pt}\LT@entry 
    {3}{104.87144pt}}
\@writefile{lot}{\contentsline {table}{\numberline {4.18}{Akses Teknologi}}{57}}
\newlabel{tab:readiness-learner-1}{{4.18}{57}}
\@writefile{lot}{\contentsline {table}{\numberline {4.19}{Kemampuan Dasar Komputer}}{57}}
\newlabel{tab:readiness-learner-2}{{4.19}{57}}
\gdef \LT@x {\LT@entry 
    {3}{27.02635pt}\LT@entry 
    {3}{178.84879pt}\LT@entry 
    {3}{76.41869pt}\LT@entry 
    {3}{104.87144pt}}
\@writefile{lot}{\contentsline {table}{\numberline {4.20}{Kemampuan Ber-Internet atau Online}}{58}}
\newlabel{tab:readiness-learner-3}{{4.20}{58}}
\gdef \LT@xi {\LT@entry 
    {3}{27.02635pt}\LT@entry 
    {3}{178.84879pt}\LT@entry 
    {3}{76.41869pt}\LT@entry 
    {3}{104.87144pt}}
\gdef \LT@xii {\LT@entry 
    {3}{27.02635pt}\LT@entry 
    {3}{178.84879pt}\LT@entry 
    {3}{76.41869pt}\LT@entry 
    {3}{104.87144pt}}
\@writefile{lot}{\contentsline {table}{\numberline {4.21}{Kemampuan Aplikasi Perangkat Lunak}}{59}}
\newlabel{tab:readiness-learner-4}{{4.21}{59}}
\@writefile{lot}{\contentsline {table}{\numberline {4.22}{Tabel Pelatihan}}{59}}
\newlabel{tab:readiness-learner-5}{{4.22}{59}}
\gdef \LT@xiii {\LT@entry 
    {3}{27.02635pt}\LT@entry 
    {3}{178.84879pt}\LT@entry 
    {3}{76.41869pt}\LT@entry 
    {3}{104.87144pt}}
\@writefile{lot}{\contentsline {table}{\numberline {4.23}{Dukungan Sosial}}{60}}
\newlabel{tab:readiness-learner-6}{{4.23}{60}}
\gdef \LT@xiv {\LT@entry 
    {3}{27.02635pt}\LT@entry 
    {3}{178.84879pt}\LT@entry 
    {3}{76.41869pt}\LT@entry 
    {3}{104.87144pt}}
\@writefile{lot}{\contentsline {table}{\numberline {4.24}{Kebiasaan Belajar}}{61}}
\newlabel{tab:readiness-learner-7}{{4.24}{61}}
\gdef \LT@xv {\LT@entry 
    {3}{27.02635pt}\LT@entry 
    {3}{178.84879pt}\LT@entry 
    {3}{76.41869pt}\LT@entry 
    {3}{104.87144pt}}
\gdef \LT@xvi {\LT@entry 
    {3}{27.02635pt}\LT@entry 
    {3}{178.84879pt}\LT@entry 
    {3}{76.41869pt}\LT@entry 
    {3}{104.87144pt}}
\@writefile{lot}{\contentsline {table}{\numberline {4.25}{Kemampuan}}{62}}
\newlabel{tab:readiness-learner-8}{{4.25}{62}}
\@writefile{lot}{\contentsline {table}{\numberline {4.26}{Motivasi}}{62}}
\newlabel{tab:readiness-learner-9}{{4.26}{62}}
\gdef \LT@xvii {\LT@entry 
    {3}{27.02635pt}\LT@entry 
    {3}{178.84879pt}\LT@entry 
    {3}{76.41869pt}\LT@entry 
    {3}{104.87144pt}}
\@writefile{lot}{\contentsline {table}{\numberline {4.27}{Manajemen Waktu}}{63}}
\newlabel{tab:readiness-learner-10}{{4.27}{63}}
\gdef \LT@xviii {\LT@entry 
    {3}{27.02635pt}\LT@entry 
    {3}{178.84879pt}\LT@entry 
    {3}{76.41869pt}\LT@entry 
    {3}{104.87144pt}}
\@writefile{lot}{\contentsline {table}{\numberline {4.28}{Daya Guna}}{64}}
\newlabel{tab:readiness-learner-11}{{4.28}{64}}
\gdef \LT@xix {\LT@entry 
    {3}{27.02635pt}\LT@entry 
    {3}{178.84879pt}\LT@entry 
    {3}{76.41869pt}\LT@entry 
    {3}{104.87144pt}}
\gdef \LT@xx {\LT@entry 
    {3}{27.02635pt}\LT@entry 
    {3}{178.84879pt}\LT@entry 
    {3}{76.41869pt}\LT@entry 
    {3}{104.87144pt}}
\@writefile{lot}{\contentsline {table}{\numberline {4.29}{Akses Teknologi}}{65}}
\newlabel{tab:readiness-teacher-1}{{4.29}{65}}
\@writefile{lot}{\contentsline {table}{\numberline {4.30}{Kemampuan Dasar Komputer}}{65}}
\newlabel{tab:readiness-teacher-2}{{4.30}{65}}
\gdef \LT@xxi {\LT@entry 
    {3}{27.02635pt}\LT@entry 
    {3}{178.84879pt}\LT@entry 
    {3}{76.41869pt}\LT@entry 
    {3}{104.87144pt}}
\@writefile{lot}{\contentsline {table}{\numberline {4.31}{Kemampuan Ber-Internet atau Online}}{66}}
\newlabel{tab:readiness-teacher-3}{{4.31}{66}}
\gdef \LT@xxii {\LT@entry 
    {3}{27.02635pt}\LT@entry 
    {3}{178.84879pt}\LT@entry 
    {3}{76.41869pt}\LT@entry 
    {3}{104.87144pt}}
\gdef \LT@xxiii {\LT@entry 
    {3}{27.02635pt}\LT@entry 
    {3}{178.84879pt}\LT@entry 
    {3}{76.41869pt}\LT@entry 
    {3}{104.87144pt}}
\@writefile{lot}{\contentsline {table}{\numberline {4.32}{Pelatihan}}{67}}
\newlabel{tab:readiness-teacher-4}{{4.32}{67}}
\@writefile{lot}{\contentsline {table}{\numberline {4.33}{Kemampuan}}{67}}
\newlabel{tab:readiness-teacher-5}{{4.33}{67}}
\gdef \LT@xxiv {\LT@entry 
    {3}{27.02635pt}\LT@entry 
    {3}{178.84879pt}\LT@entry 
    {3}{76.41869pt}\LT@entry 
    {3}{104.87144pt}}
\@writefile{lot}{\contentsline {table}{\numberline {4.34}{Motivasi}}{68}}
\newlabel{tab:readiness-teacher-6}{{4.34}{68}}
\gdef \LT@xxv {\LT@entry 
    {3}{27.02635pt}\LT@entry 
    {3}{178.84879pt}\LT@entry 
    {3}{76.41869pt}\LT@entry 
    {3}{104.87144pt}}
\@writefile{lot}{\contentsline {table}{\numberline {4.35}{Manajemen Waktu}}{69}}
\newlabel{tab:readiness-teacher-7}{{4.35}{69}}
\gdef \LT@xxvi {\LT@entry 
    {3}{27.02635pt}\LT@entry 
    {3}{178.84879pt}\LT@entry 
    {3}{76.41869pt}\LT@entry 
    {3}{104.87144pt}}
\@writefile{lot}{\contentsline {table}{\numberline {4.36}{Daya Guna}}{70}}
\newlabel{tab:readiness-teacher-8}{{4.36}{70}}
\gdef \LT@xxvii {\LT@entry 
    {3}{27.02635pt}\LT@entry 
    {3}{178.84879pt}\LT@entry 
    {3}{76.41869pt}\LT@entry 
    {3}{104.87144pt}}
\gdef \LT@xxviii {\LT@entry 
    {3}{27.02635pt}\LT@entry 
    {3}{178.84879pt}\LT@entry 
    {3}{76.41869pt}\LT@entry 
    {3}{104.87144pt}}
\@writefile{lot}{\contentsline {table}{\numberline {4.37}{Kemampuan Memproduksi Perangkat Lunak}}{71}}
\newlabel{tab:readiness-teacher-9}{{4.37}{71}}
\@writefile{lot}{\contentsline {table}{\numberline {4.38}{Strategi dan Gaya Mengajar}}{71}}
\newlabel{tab:readiness-teacher-10}{{4.38}{71}}
\citation{ben2012measuring}
\gdef \LT@xxix {\LT@entry 
    {3}{27.02635pt}\LT@entry 
    {3}{292.6598pt}\LT@entry 
    {3}{76.41869pt}}
\@writefile{lot}{\contentsline {table}{\numberline {4.39}{Pengujian Efektivitas Sistem}}{73}}
\newlabel{tab:feedback}{{4.39}{73}}
\@setckpt{Implementasi}{
\setcounter{page}{75}
\setcounter{equation}{0}
\setcounter{enumi}{4}
\setcounter{enumii}{6}
\setcounter{enumiii}{0}
\setcounter{enumiv}{0}
\setcounter{footnote}{0}
\setcounter{mpfootnote}{0}
\setcounter{part}{0}
\setcounter{chapter}{4}
\setcounter{section}{3}
\setcounter{subsection}{2}
\setcounter{subsubsection}{0}
\setcounter{paragraph}{0}
\setcounter{subparagraph}{0}
\setcounter{figure}{3}
\setcounter{table}{39}
\setcounter{float@type}{8}
\setcounter{algorithm}{0}
\setcounter{ALG@line}{0}
\setcounter{ALG@rem}{0}
\setcounter{ALG@nested}{0}
\setcounter{ALG@Lnr}{2}
\setcounter{ALG@blocknr}{10}
\setcounter{ALG@storecount}{0}
\setcounter{ALG@tmpcounter}{0}
\setcounter{parentequation}{0}
\setcounter{r@tfl@t}{4}
\setcounter{LT@tables}{29}
\setcounter{LT@chunks}{3}
}
