\relax 
\citation{wibowo2015redefining}
\citation{aydin2005measuring}
\citation{darab2011eclectic}
\citation{Kapp:2004:WWE:980823.980827}
\citation{chapnick2000you}
\citation{borotis2004learning}
\citation{rosenberg2001learning}
\citation{broadbent2001tips}
\citation{anderson2002learning}
\citation{haney2002assessing}
\citation{rogers2010diffusion}
\citation{darab2011eclectic}
\citation{darab2011eclectic}
\citation{machado2007developing}
\citation{watkins2004assessing}
\citation{watkins2013learning}
\citation{keramati2011role}
\citation{machado2007developing}
\citation{kaur2004assessment}
\citation{eslaminejad2010assessment}
\citation{njihia2014learning}
\citation{darab2011eclectic}
\citation{doculanelearning}
\citation{alshaher2013mckinsey}
\citation{wibowo2015redefining}
\citation{gredler1997learning}
\citation{agboola2006assessing}
\citation{wattakiecharoen2013learning}
\citation{schreurs2008learning}
\citation{ali2010measuring}
\citation{fageeh2011efl}
\citation{saekow2011learning}
\citation{parlakkilicc2015learning}
\@writefile{toc}{\contentsline {chapter}{\numberline {II}Kajian Pustaka}{5}}
\@writefile{lof}{\addvspace {10\p@ }}
\@writefile{lot}{\addvspace {10\p@ }}
\@writefile{toc}{\contentsline {section}{\numberline {2.1}E-learning Readiness}{5}}
\@writefile{lot}{\contentsline {table}{\numberline {2.1}{Kriteria Penentuan model \textit  {e-learning readiness}}}{5}}
\newlabel{tab:model}{{2.1}{5}}
\gdef \LT@i {\LT@entry 
    {3}{41.25273pt}\LT@entry 
    {3}{133.3242pt}\LT@entry 
    {3}{90.64507pt}}
\citation{aydin2005measuring}
\citation{rosenberg2001learning}
\citation{haney2002assessing}
\citation{watkins2004assessing}
\citation{kaur2004assessment}
\citation{njihia2014learning}
\citation{doculanelearning}
\citation{alshaher2013mckinsey}
\citation{simon1960new}
\citation{kleindorfer1993decision}
\citation{keeney1993decisions}
\citation{hwang2012multiple}
\@writefile{lot}{\contentsline {table}{\numberline {2.2}{\ignorespaces Perbedaan Model {\it  E-Learning Readiness}}}{7}}
\newlabel{tabel-1}{{2.2}{7}}
\@writefile{toc}{\contentsline {section}{\numberline {2.2}Multiple Criterion Decision Making}{7}}
\citation{saaty2008decision}
\citation{saaty1980analytic}
\citation{taylor1996introduction}
\citation{srichetta2012applying}
\citation{saaty2008decision}
\@writefile{toc}{\contentsline {section}{\numberline {2.3}Analytic Hierarchy Process (AHP)}{8}}
\citation{saaty1990make}
\citation{srichetta2012applying}
\@writefile{toc}{\contentsline {subsection}{\numberline {2.3.1}Consistency Test}{9}}
\newlabel{eq-9}{{2.1}{9}}
\newlabel{eq-10}{{2.2}{9}}
\citation{erensal2006determining}
\citation{tzeng2011multiple}
\citation{tzeng2011multiple}
\newlabel{eq-11}{{2.3}{10}}
\@writefile{lot}{\contentsline {table}{\numberline {2.3}{\ignorespaces Tabel Nilai \textit  {Random Index} \cite  {srichetta2012applying}}}{10}}
\newlabel{tabel-4}{{2.3}{10}}
\@writefile{toc}{\contentsline {section}{\numberline {2.4}Fuzzy Analytical Hierarchy Process (FAHP)}{10}}
\@writefile{toc}{\contentsline {subsection}{\numberline {2.4.1}Triangular Fuzzy Numbers (TFNs)}{10}}
\@writefile{lot}{\contentsline {table}{\numberline {2.4}{\ignorespaces Tabel Skala \textit  {Fuzzy Analytic Hierarchy Process} (FAHP) \cite  {tzeng2011multiple}}}{10}}
\newlabel{tabel-2}{{2.4}{10}}
\citation{buckley1985ranking}
\citation{buckley1985fuzzy}
\@writefile{toc}{\contentsline {subsection}{\numberline {2.4.2}Fuzzy Pair-Wise Comparison Matrix}{11}}
\newlabel{eq-1}{{2.4}{11}}
\newlabel{eq-2}{{2.5}{11}}
\newlabel{eq-3}{{2.6}{11}}
\newlabel{eq-4}{{2.7}{11}}
\newlabel{eq-5}{{2.8}{11}}
\@writefile{toc}{\contentsline {subsection}{\numberline {2.4.3}Agregate the Group Decisions}{11}}
\newlabel{eq-6}{{2.9}{11}}
\citation{kusumadewi2006fuzzy}
\citation{huang2008fuzzy}
\citation{kusumadewi2006fuzzy}
\citation{pressman2005software}
\@writefile{toc}{\contentsline {subsection}{\numberline {2.4.4}Compute the Value of Fuzzy Synthetic Extent}{12}}
\newlabel{eq-7}{{2.10}{12}}
\newlabel{eq-8}{{2.11}{12}}
\newlabel{eq-12}{{2.12}{12}}
\@writefile{toc}{\contentsline {subsection}{\numberline {2.4.5}Defuzzification}{12}}
\newlabel{eq-13}{{2.13}{12}}
\@writefile{toc}{\contentsline {section}{\numberline {2.5}Black-box Testing}{12}}
\@writefile{lot}{\contentsline {table}{\numberline {2.5}{\ignorespaces Contoh \textit  {Test Cases}}}{13}}
\newlabel{test-case}{{2.5}{13}}
\@setckpt{Kajian-Pustaka}{
\setcounter{page}{14}
\setcounter{equation}{13}
\setcounter{enumi}{5}
\setcounter{enumii}{0}
\setcounter{enumiii}{0}
\setcounter{enumiv}{0}
\setcounter{footnote}{0}
\setcounter{mpfootnote}{0}
\setcounter{part}{0}
\setcounter{chapter}{2}
\setcounter{section}{5}
\setcounter{subsection}{0}
\setcounter{subsubsection}{0}
\setcounter{paragraph}{0}
\setcounter{subparagraph}{0}
\setcounter{figure}{0}
\setcounter{table}{5}
\setcounter{float@type}{8}
\setcounter{algorithm}{0}
\setcounter{ALG@line}{0}
\setcounter{ALG@rem}{0}
\setcounter{ALG@nested}{0}
\setcounter{ALG@Lnr}{2}
\setcounter{ALG@blocknr}{10}
\setcounter{ALG@storecount}{0}
\setcounter{ALG@tmpcounter}{0}
\setcounter{parentequation}{0}
\setcounter{r@tfl@t}{0}
\setcounter{LT@tables}{1}
\setcounter{LT@chunks}{4}
}
