\relax 
\@writefile{lof}{\contentsline {figure}{\numberline {5.1}{\ignorespaces Validasi Bu Anisa Herdiani, M.T.}}{81}}
\newlabel{fig:NDN-1}{{5.1}{81}}
\@writefile{lof}{\contentsline {figure}{\numberline {5.2}{\ignorespaces Validasi Bu Anisa Herdiani, M.T.}}{81}}
\newlabel{fig:NDN-2}{{5.2}{81}}
\@writefile{lof}{\contentsline {figure}{\numberline {5.3}{\ignorespaces Validasi Bu Anisa Herdiani, M.T.}}{82}}
\newlabel{fig:NDN-3}{{5.3}{82}}
\@writefile{lof}{\contentsline {figure}{\numberline {5.4}{\ignorespaces Validasi Bu Anisa Herdiani, M.T.}}{82}}
\newlabel{fig:NDN-4}{{5.4}{82}}
\@writefile{lof}{\contentsline {figure}{\numberline {5.5}{\ignorespaces Validasi Bu Anisa Herdiani, M.T.}}{83}}
\newlabel{fig:NDN-5}{{5.5}{83}}
\@writefile{lof}{\contentsline {figure}{\numberline {5.6}{\ignorespaces Validasi Pak Dawam Dwi Jatmiko Suwawi, M.T.}}{83}}
\newlabel{fig:DWM-1}{{5.6}{83}}
\@writefile{lof}{\contentsline {figure}{\numberline {5.7}{\ignorespaces Validasi Pak Dawam Dwi Jatmiko Suwawi, M.T.}}{84}}
\newlabel{fig:DWM-2}{{5.7}{84}}
\@writefile{lof}{\contentsline {figure}{\numberline {5.8}{\ignorespaces Validasi Pak Dawam Dwi Jatmiko Suwawi, M.T.}}{84}}
\newlabel{fig:DWM-3}{{5.8}{84}}
\@writefile{lof}{\contentsline {figure}{\numberline {5.9}{\ignorespaces Validasi Pak Dawam Dwi Jatmiko Suwawi, M.T.}}{85}}
\newlabel{fig:DWM-4}{{5.9}{85}}
\@writefile{lof}{\contentsline {figure}{\numberline {5.10}{\ignorespaces Validasi Pak Dawam Dwi Jatmiko Suwawi, M.T.}}{85}}
\newlabel{fig:DWM-5}{{5.10}{85}}
\@writefile{lof}{\contentsline {figure}{\numberline {5.11}{\ignorespaces Validasi Pak Nungki Selviandro, M.Kom.}}{86}}
\newlabel{fig:NKS-1}{{5.11}{86}}
\@writefile{lof}{\contentsline {figure}{\numberline {5.12}{\ignorespaces Validasi Pak Nungki Selviandro, M.Kom.}}{86}}
\newlabel{fig:NKS-2}{{5.12}{86}}
\@writefile{lof}{\contentsline {figure}{\numberline {5.13}{\ignorespaces Validasi Pak Nungki Selviandro, M.Kom.}}{87}}
\newlabel{fig:NKS-3}{{5.13}{87}}
\@writefile{lof}{\contentsline {figure}{\numberline {5.14}{\ignorespaces Validasi Pak Nungki Selviandro, M.Kom.}}{87}}
\newlabel{fig:NKS-4}{{5.14}{87}}
\@writefile{lof}{\contentsline {figure}{\numberline {5.15}{\ignorespaces Validasi Pak Nungki Selviandro, M.Kom.}}{88}}
\newlabel{fig:NKS-5}{{5.15}{88}}
\@writefile{lof}{\contentsline {figure}{\numberline {5.16}{\ignorespaces Validasi Pak Nungki Selviandro, M.Kom.}}{88}}
\newlabel{fig:NKS-6}{{5.16}{88}}
\gdef \LT@xxx {\LT@entry 
    {3}{197.74289pt}\LT@entry 
    {3}{197.3429pt}}
\@writefile{lof}{\contentsline {figure}{\numberline {5.17}{\ignorespaces Validasi Pak Nungki Selviandro, M.Kom.}}{89}}
\newlabel{fig:NKS-7}{{5.17}{89}}
\@writefile{lot}{\contentsline {table}{\numberline {5.1}{Skenario \textit  {Get Recommendation}}}{89}}
\newlabel{tab:skenario-1}{{5.1}{89}}
\gdef \LT@xxxi {\LT@entry 
    {3}{197.74289pt}\LT@entry 
    {3}{197.3429pt}}
\@writefile{lot}{\contentsline {table}{\numberline {5.2}{Skenario \textit  {Evaluate Readiness}}}{90}}
\newlabel{tab:skenario-2}{{5.2}{90}}
\@writefile{lot}{\contentsline {table}{\numberline {5.3}{Skenario \textit  {Manage Criteria}}}{90}}
\newlabel{tab:skenario-3}{{5.3}{90}}
\gdef \LT@xxxii {\LT@entry 
    {3}{197.74289pt}\LT@entry 
    {3}{197.3429pt}}
\gdef \LT@xxxiii {\LT@entry 
    {3}{197.74289pt}\LT@entry 
    {3}{197.3429pt}}
\@writefile{lot}{\contentsline {table}{\numberline {5.4}{Skenario \textit  {See Results}}}{92}}
\newlabel{tab:skenario-4}{{5.4}{92}}
\@writefile{lot}{\contentsline {table}{\numberline {5.5}{Skenario \textit  {Manage EModel}}}{92}}
\newlabel{tab:skenario-5}{{5.5}{92}}
\gdef \LT@xxxiv {\LT@entry 
    {3}{197.74289pt}\LT@entry 
    {3}{197.3429pt}}
\@writefile{lot}{\contentsline {table}{\numberline {5.6}{Skenario \textit  {Manage Factor}}}{94}}
\newlabel{tab:skenario-6}{{5.6}{94}}
\gdef \LT@xxxv {\LT@entry 
    {3}{197.74289pt}\LT@entry 
    {3}{197.3429pt}}
\@writefile{lot}{\contentsline {table}{\numberline {5.7}{Skenario \textit  {Manage Sub Criteria}}}{95}}
\newlabel{tab:skenario-7}{{5.7}{95}}
\gdef \LT@xxxvi {\LT@entry 
    {3}{197.74289pt}\LT@entry 
    {3}{197.3429pt}}
\@writefile{lot}{\contentsline {table}{\numberline {5.8}{Skenario \textit  {Manage Indicator}}}{96}}
\newlabel{tab:skenario-8}{{5.8}{96}}
\gdef \LT@xxxvii {\LT@entry 
    {3}{197.74289pt}\LT@entry 
    {3}{197.3429pt}}
\@writefile{lot}{\contentsline {table}{\numberline {5.9}{Skenario \textit  {Manage Scale}}}{98}}
\newlabel{tab:skenario-9}{{5.9}{98}}
\gdef \LT@xxxviii {\LT@entry 
    {3}{197.74289pt}\LT@entry 
    {3}{197.3429pt}}
\gdef \LT@xxxix {\LT@entry 
    {3}{197.74289pt}\LT@entry 
    {3}{197.3429pt}}
\@writefile{lot}{\contentsline {table}{\numberline {5.10}{Skenario \textit  {Fill Questionaire}}}{99}}
\newlabel{tab:skenario-10}{{5.10}{99}}
\gdef \LT@xl {\LT@entry 
    {3}{197.74289pt}\LT@entry 
    {3}{197.3429pt}}
\@writefile{lot}{\contentsline {table}{\numberline {5.11}{Skenario \textit  {Calculate Results}}}{100}}
\newlabel{tab:skenario-11}{{5.11}{100}}
\gdef \LT@xli {\LT@entry 
    {3}{197.74289pt}\LT@entry 
    {3}{197.3429pt}}
\gdef \LT@xlii {\LT@entry 
    {3}{197.74289pt}\LT@entry 
    {3}{197.3429pt}}
\@writefile{lot}{\contentsline {table}{\numberline {5.12}{Skenario \textit  {Update Form}}}{101}}
\newlabel{tab:skenario-12}{{5.12}{101}}
\@writefile{lot}{\contentsline {table}{\numberline {5.13}{Skenario \textit  {Delete Respondent}}}{101}}
\newlabel{tab:skenario-13}{{5.13}{101}}
\gdef \LT@xliii {\LT@entry 
    {3}{197.74289pt}\LT@entry 
    {3}{197.3429pt}}
\@writefile{lot}{\contentsline {table}{\numberline {5.14}{Skenario \textit  {Show Link}}}{102}}
\newlabel{tab:skenario-14}{{5.14}{102}}
\@writefile{lof}{\contentsline {figure}{\numberline {5.18}{\ignorespaces Activity Diagram Evaluate Readiness}}{103}}
\newlabel{fig:activity-1}{{5.18}{103}}
\@writefile{lof}{\contentsline {figure}{\numberline {5.19}{\ignorespaces Activity Diagram Get Recommendation}}{103}}
\newlabel{fig:activity-2}{{5.19}{103}}
\@writefile{lof}{\contentsline {figure}{\numberline {5.20}{\ignorespaces Activity Diagram See Result}}{104}}
\newlabel{fig:activity-3}{{5.20}{104}}
\@writefile{lof}{\contentsline {figure}{\numberline {5.21}{\ignorespaces Activity Diagram Insert Criteria}}{104}}
\newlabel{fig:activity-4}{{5.21}{104}}
\@writefile{lof}{\contentsline {figure}{\numberline {5.22}{\ignorespaces Activity Diagram Delete Criteria}}{105}}
\newlabel{fig:activity-5}{{5.22}{105}}
\@writefile{lof}{\contentsline {figure}{\numberline {5.23}{\ignorespaces Activity Diagram Update Criteria}}{105}}
\newlabel{fig:activity-6}{{5.23}{105}}
\@writefile{lof}{\contentsline {figure}{\numberline {5.24}{\ignorespaces Activity Diagram Insert Sub Criteria}}{106}}
\newlabel{fig:activity-7}{{5.24}{106}}
\@writefile{lof}{\contentsline {figure}{\numberline {5.25}{\ignorespaces Activity Diagram Delete Sub Criteria}}{106}}
\newlabel{fig:activity-8}{{5.25}{106}}
\@writefile{lof}{\contentsline {figure}{\numberline {5.26}{\ignorespaces Activity Diagram Update Sub Criteria}}{107}}
\newlabel{fig:activity-9}{{5.26}{107}}
\@writefile{lof}{\contentsline {figure}{\numberline {5.27}{\ignorespaces Activity Diagram Insert EModel}}{107}}
\newlabel{fig:activity-10}{{5.27}{107}}
\@writefile{lof}{\contentsline {figure}{\numberline {5.28}{\ignorespaces Activity Diagram Delete EModel}}{108}}
\newlabel{fig:activity-11}{{5.28}{108}}
\@writefile{lof}{\contentsline {figure}{\numberline {5.29}{\ignorespaces Activity Diagram Update EModel}}{108}}
\newlabel{fig:activity-12}{{5.29}{108}}
\@writefile{lof}{\contentsline {figure}{\numberline {5.30}{\ignorespaces Activity Diagram Insert Factor EModel}}{109}}
\newlabel{fig:activity-13}{{5.30}{109}}
\@writefile{lof}{\contentsline {figure}{\numberline {5.31}{\ignorespaces Activity Diagram Delete Factor EModel}}{109}}
\newlabel{fig:activity-14}{{5.31}{109}}
\@writefile{lof}{\contentsline {figure}{\numberline {5.32}{\ignorespaces Activity Diagram Update Factor EModel}}{110}}
\newlabel{fig:activity-15}{{5.32}{110}}
\@writefile{lof}{\contentsline {figure}{\numberline {5.33}{\ignorespaces Activity Diagram Insert Scale EModel}}{111}}
\newlabel{fig:activity-16}{{5.33}{111}}
\@writefile{lof}{\contentsline {figure}{\numberline {5.34}{\ignorespaces Activity Diagram Delete Scale EModel}}{111}}
\newlabel{fig:activity-17}{{5.34}{111}}
\@writefile{lof}{\contentsline {figure}{\numberline {5.35}{\ignorespaces Activity Diagram Update Scale EModel}}{112}}
\newlabel{fig:activity-18}{{5.35}{112}}
\@writefile{lof}{\contentsline {figure}{\numberline {5.36}{\ignorespaces Activity Diagram Fill Questionaire}}{112}}
\newlabel{fig:activity-19}{{5.36}{112}}
\@writefile{lof}{\contentsline {figure}{\numberline {5.37}{\ignorespaces Activity Diagram Calculate Result}}{113}}
\newlabel{fig:activity-20}{{5.37}{113}}
\@writefile{lof}{\contentsline {figure}{\numberline {5.38}{\ignorespaces Activity Diagram Delete Respondent}}{113}}
\newlabel{fig:activity-21}{{5.38}{113}}
\@writefile{lof}{\contentsline {figure}{\numberline {5.39}{\ignorespaces Activity Diagram Resend Form}}{114}}
\newlabel{fig:activity-22}{{5.39}{114}}
\@writefile{lof}{\contentsline {figure}{\numberline {5.40}{\ignorespaces Activity Diagram Show Detail}}{114}}
\newlabel{fig:activity-23}{{5.40}{114}}
\@writefile{lot}{\contentsline {table}{\numberline {5.15}{\textit  {Test Cases System}}}{116}}
\newlabel{tab:black-box}{{5.15}{116}}
\gdef \LT@xliv {\LT@entry 
    {3}{62.5923pt}\LT@entry 
    {3}{119.09782pt}\LT@entry 
    {3}{119.09782pt}\LT@entry 
    {3}{111.98463pt}\LT@entry 
    {3}{97.75826pt}\LT@entry 
    {3}{69.3055pt}\LT@entry 
    {3}{97.75826pt}}
\@writefile{lof}{\contentsline {figure}{\numberline {5.41}{\ignorespaces Hasil Wawancara PJJ}}{121}}
\newlabel{fig:ww-1}{{5.41}{121}}
\@writefile{lof}{\contentsline {figure}{\numberline {5.42}{\ignorespaces Hasil Wawancara PJJ}}{122}}
\newlabel{fig:ww-2}{{5.42}{122}}
\@writefile{lof}{\contentsline {figure}{\numberline {5.43}{\ignorespaces Surat Persetujuan Hasil Pengujian}}{123}}
\newlabel{fig:message}{{5.43}{123}}
\@setckpt{Lampiran}{
\setcounter{page}{124}
\setcounter{equation}{0}
\setcounter{enumi}{1}
\setcounter{enumii}{6}
\setcounter{enumiii}{0}
\setcounter{enumiv}{53}
\setcounter{footnote}{0}
\setcounter{mpfootnote}{0}
\setcounter{part}{0}
\setcounter{chapter}{5}
\setcounter{section}{2}
\setcounter{subsection}{0}
\setcounter{subsubsection}{0}
\setcounter{paragraph}{0}
\setcounter{subparagraph}{0}
\setcounter{figure}{43}
\setcounter{table}{15}
\setcounter{float@type}{8}
\setcounter{algorithm}{0}
\setcounter{ALG@line}{0}
\setcounter{ALG@rem}{0}
\setcounter{ALG@nested}{0}
\setcounter{ALG@Lnr}{2}
\setcounter{ALG@blocknr}{10}
\setcounter{ALG@storecount}{0}
\setcounter{ALG@tmpcounter}{0}
\setcounter{parentequation}{0}
\setcounter{r@tfl@t}{4}
\setcounter{LT@tables}{44}
\setcounter{LT@chunks}{4}
}
