\BOOKMARK [0][-]{chapter*.1}{Abstrak}{}% 1
\BOOKMARK [0][-]{chapter*.2}{Abstract}{}% 2
\BOOKMARK [0][-]{chapter*.3}{Lembar Persembahan}{}% 3
\BOOKMARK [0][-]{Item.30}{Kata Pengantar}{}% 4
\BOOKMARK [0][-]{chapter*.5}{Daftar Isi}{}% 5
\BOOKMARK [0][-]{chapter*.6}{Daftar Gambar}{}% 6
\BOOKMARK [0][-]{chapter*.7}{Daftar Tabel}{}% 7
\BOOKMARK [0][-]{chapter.1}{Pendahuluan}{}% 8
\BOOKMARK [1][-]{section.1.1}{Latar Belakang}{chapter.1}% 9
\BOOKMARK [1][-]{section.1.2}{Perumusan Masalah}{chapter.1}% 10
\BOOKMARK [1][-]{section.1.3}{Tujuan}{chapter.1}% 11
\BOOKMARK [1][-]{section.1.4}{Metode Penyelesaian Masalah}{chapter.1}% 12
\BOOKMARK [1][-]{section.1.5}{Sistematika Penulisan}{chapter.1}% 13
\BOOKMARK [0][-]{chapter.2}{Kajian Pustaka}{}% 14
\BOOKMARK [1][-]{section.2.1}{E-learning Readiness}{chapter.2}% 15
\BOOKMARK [1][-]{section.2.2}{Analytic Hierarchy Process \(AHP\)}{chapter.2}% 16
\BOOKMARK [2][-]{subsection.2.2.1}{Consistency Test}{section.2.2}% 17
\BOOKMARK [1][-]{section.2.3}{Fuzzy Analytical Hierarchy Process \(FAHP\)}{chapter.2}% 18
\BOOKMARK [2][-]{subsection.2.3.1}{Triangular Fuzzy Numbers \(TFNs\)}{section.2.3}% 19
\BOOKMARK [2][-]{subsection.2.3.2}{Agregate the Group Decisions}{section.2.3}% 20
\BOOKMARK [2][-]{subsection.2.3.3}{Compute the Value of Fuzzy Synthetic Extent}{section.2.3}% 21
\BOOKMARK [2][-]{subsection.2.3.4}{Defuzzification}{section.2.3}% 22
\BOOKMARK [1][-]{section.2.4}{Black-box Testing}{chapter.2}% 23
\BOOKMARK [0][-]{chapter.3}{Metodologi dan Desain Sistem}{}% 24
\BOOKMARK [1][-]{section.3.1}{Metodologi Penelitian}{chapter.3}% 25
\BOOKMARK [0][-]{chapter.4}{Implementasi dan Pengujian}{}% 26
\BOOKMARK [1][-]{section.4.1}{Implementasi Sistem}{chapter.4}% 27
\BOOKMARK [1][-]{section.4.2}{Skenario Pengujian}{chapter.4}% 28
\BOOKMARK [1][-]{section.4.3}{Hasil Implementasi}{chapter.4}% 29
\BOOKMARK [2][-]{subsection.4.3.1}{Hasil Rekomendasi Model E-Learning Readiness}{section.4.3}% 30
\BOOKMARK [0][-]{chapter.5}{Kesimpulan}{}% 31
\BOOKMARK [1][-]{section.5.1}{Kesimpulan}{chapter.5}% 32
\BOOKMARK [1][-]{section.5.2}{Saran}{chapter.5}% 33
\BOOKMARK [0][-]{Item.81}{Daftar Pustaka}{}% 34
\BOOKMARK [0][-]{chapter*.13}{Lampiran}{}% 35
\BOOKMARK [1][-]{section.5.3}{Lembar Validasi Hirarki Keputusan}{chapter*.13}% 36
\BOOKMARK [2][-]{subsection.5.3.1}{Validasi Oleh Pakar 1}{section.5.3}% 37
\BOOKMARK [2][-]{subsection.5.3.2}{Validasi Oleh Pakar 2}{section.5.3}% 38
\BOOKMARK [2][-]{subsection.5.3.3}{Validasi Oleh Pakar 3}{section.5.3}% 39
\BOOKMARK [1][-]{section.5.4}{Skenario Use Case Diagram}{chapter*.13}% 40
\BOOKMARK [1][-]{section.5.5}{Activity Diagram Sistem}{chapter*.13}% 41
\BOOKMARK [1][-]{section.5.6}{Hasil Pengujian Black-box}{chapter*.13}% 42
\BOOKMARK [1][-]{section.5.7}{Wawancara Studi Kasus}{chapter*.13}% 43
\BOOKMARK [1][-]{section.5.8}{Surat Pernyataan Pengujian}{chapter*.13}% 44
