\relax 
\@input{Cover.aux}
\select@language{bahasa}
\@writefile{toc}{\select@language{bahasa}}
\@writefile{lof}{\select@language{bahasa}}
\@writefile{lot}{\select@language{bahasa}}
\@input{Lembar-Pernyataan.aux}
\@input{Lembar-Persetujuan.aux}
\@input{Abstrak-Indo.aux}
\@writefile{toc}{\contentsline {chapter}{Abstrak}{i}}
\@input{Abstract-En.aux}
\@writefile{toc}{\contentsline {chapter}{Abstract}{ii}}
\@input{Lembar-Persembahan.aux}
\@writefile{toc}{\contentsline {chapter}{Lembar Persembahan}{iii}}
\@input{Kata-Pengantar.aux}
\@writefile{toc}{\contentsline {chapter}{Kata Pengantar}{vi}}
\@writefile{toc}{\contentsline {chapter}{Daftar Isi}{vii}}
\citation{williamcottrell2004}
\citation{aydin2005measuring}
\@writefile{toc}{\contentsline {chapter}{Daftar Gambar}{ix}}
\citation{srichetta2012applying}
\citation{tzeng2011multiple}
\@writefile{toc}{\contentsline {chapter}{Daftar Tabel}{xi}}
\@input{Pendahuluan.aux}
\@input{Kajian-Pustaka.aux}
\@input{Metodologi.aux}
\@input{Implementasi.aux}
\@input{Kesimpulan.aux}
\bibstyle{ieeetr}
\bibdata{References}
\bibcite{williamcottrell2004}{1}
\bibcite{aydin2005measuring}{2}
\bibcite{srichetta2012applying}{3}
\bibcite{tzeng2011multiple}{4}
\bibcite{wibowo2015redefining}{5}
\bibcite{darab2011eclectic}{6}
\bibcite{watkins2013learning}{7}
\bibcite{saaty2008decision}{8}
\bibcite{rosenberg2001learning}{9}
\bibcite{haney2002assessing}{10}
\bibcite{watkins2004assessing}{11}
\bibcite{kaur2004assessment}{12}
\@writefile{toc}{\contentsline {chapter}{Daftar Pustaka}{76}}
\bibcite{njihia2014learning}{13}
\bibcite{doculanelearning}{14}
\bibcite{alshaher2013mckinsey}{15}
\bibcite{Kapp:2004:WWE:980823.980827}{16}
\bibcite{chapnick2000you}{17}
\bibcite{borotis2004learning}{18}
\bibcite{broadbent2001tips}{19}
\bibcite{anderson2002learning}{20}
\bibcite{rogers2010diffusion}{21}
\bibcite{machado2007developing}{22}
\bibcite{keramati2011role}{23}
\bibcite{eslaminejad2010assessment}{24}
\bibcite{gredler1997learning}{25}
\bibcite{agboola2006assessing}{26}
\bibcite{wattakiecharoen2013learning}{27}
\bibcite{schreurs2008learning}{28}
\bibcite{ali2010measuring}{29}
\bibcite{fageeh2011efl}{30}
\bibcite{saekow2011learning}{31}
\bibcite{parlakkilicc2015learning}{32}
\bibcite{simon1960new}{33}
\bibcite{kleindorfer1993decision}{34}
\bibcite{keeney1993decisions}{35}
\bibcite{hwang2012multiple}{36}
\bibcite{saaty1980analytic}{37}
\bibcite{taylor1996introduction}{38}
\bibcite{saaty1990make}{39}
\bibcite{erensal2006determining}{40}
\bibcite{buckley1985ranking}{41}
\bibcite{buckley1985fuzzy}{42}
\bibcite{kusumadewi2006fuzzy}{43}
\bibcite{huang2008fuzzy}{44}
\bibcite{pressman2005software}{45}
\bibcite{hashim2014learning}{46}
\bibcite{mafenya2013investigation}{47}
\bibcite{begivcevic2007development}{48}
\bibcite{ali2008barriers}{49}
\bibcite{rohayani2015literature}{50}
\bibcite{djamaris2012implementation}{51}
\bibcite{booch2005unified}{52}
\bibcite{ben2012measuring}{53}
\@input{Lampiran.aux}
\@writefile{toc}{\contentsline {chapter}{Lampiran}{81}}
