\relax 
\@writefile{toc}{\contentsline {chapter}{\numberline {III}Metodologi dan Desain Sistem}{14}}
\@writefile{lof}{\addvspace {10\p@ }}
\@writefile{lot}{\addvspace {10\p@ }}
\@writefile{toc}{\contentsline {section}{\numberline {3.1}Metodologi Penelitian}{14}}
\@writefile{lof}{\contentsline {figure}{\numberline {3.1}{\ignorespaces Diagram Alur Metodologi Penelitian}}{14}}
\newlabel{fig:rencana}{{3.1}{14}}
\@writefile{toc}{\contentsline {subsection}{\numberline {3.1.1}Identifikasi Masalah}{15}}
\@writefile{toc}{\contentsline {subsection}{\numberline {3.1.2}Studi Literatur}{15}}
\citation{williamcottrell2004}
\@writefile{toc}{\contentsline {subsection}{\numberline {3.1.3}Desain Sistem}{16}}
\@writefile{lof}{\contentsline {figure}{\numberline {3.2}{\ignorespaces \textit  {Rational Unified Process} \cite  {williamcottrell2004}}}{16}}
\newlabel{fig:rup}{{3.2}{16}}
\@writefile{toc}{\contentsline {subsubsection}{Requirements}{16}}
\@writefile{toc}{\contentsline {subsubsection}{Analysis \& Design}{17}}
\@writefile{toc}{\contentsline {subsubsection}{Alur Sistem}{17}}
\@writefile{lof}{\contentsline {figure}{\numberline {3.3}{\ignorespaces Diagram Alur Sistem}}{18}}
\newlabel{fig:sistem}{{3.3}{18}}
\@writefile{toc}{\contentsline {subsubsection}{Rekomendasi Model}{18}}
\citation{hashim2014learning}
\citation{saekow2011learning}
\citation{borotis2004learning}
\@writefile{lof}{\contentsline {figure}{\numberline {3.4}{\ignorespaces Diagram Alur Tahapan Rekomendasi Model}}{19}}
\newlabel{fig:recommend}{{3.4}{19}}
\@writefile{toc}{\contentsline {subsubsection}{Perancangan Hirakri Keputusan}{19}}
\citation{mafenya2013investigation}
\citation{watkins2004assessing}
\citation{begivcevic2007development}
\citation{kaur2004assessment}
\citation{mafenya2013investigation}
\citation{eslaminejad2010assessment}
\citation{haney2002assessing}
\citation{ali2008barriers}
\citation{machado2007developing}
\citation{aydin2005measuring}
\citation{saekow2011learning}
\citation{chapnick2000you}
\citation{rosenberg2001learning}
\citation{anderson2002learning}
\citation{saekow2011learning}
\citation{rohayani2015literature}
\citation{darab2011eclectic}
\citation{haney2002assessing}
\citation{doculanelearning}
\citation{wibowo2015redefining}
\citation{haney2002assessing}
\citation{wibowo2015redefining}
\citation{rosenberg2001learning}
\citation{darab2011eclectic}
\citation{darab2011eclectic}
\citation{saekow2011learning}
\citation{rohayani2015literature}
\citation{djamaris2012implementation}
\citation{watkins2004assessing}
\citation{mafenya2013investigation}
\citation{haney2002assessing}
\citation{kaur2004assessment}
\citation{mafenya2013investigation}
\citation{eslaminejad2010assessment}
\citation{aydin2005measuring}
\citation{machado2007developing}
\citation{saekow2011learning}
\citation{ali2008barriers}
\citation{djamaris2012implementation}
\citation{saekow2011learning}
\citation{saekow2011learning}
\citation{anderson2002learning}
\citation{aydin2005measuring}
\citation{borotis2004learning}
\citation{broadbent2001tips}
\citation{chapnick2000you}
\citation{darab2011eclectic}
\citation{doculanelearning}
\citation{haney2002assessing}
\citation{kaur2004assessment}
\citation{keramati2011role}
\citation{machado2007developing}
\citation{njihia2014learning}
\citation{rosenberg2001learning}
\citation{saekow2011learning}
\citation{watkins2004assessing}
\citation{wibowo2015redefining}
\citation{rohayani2015literature}
\citation{aydin2005measuring}
\citation{haney2002assessing}
\citation{watkins2004assessing}
\citation{njihia2014learning}
\citation{doculanelearning}
\citation{haney2002assessing}
\citation{kaur2004assessment}
\citation{njihia2014learning}
\citation{watkins2004assessing}
\citation{kaur2004assessment}
\citation{keramati2011role}
\citation{njihia2014learning}
\citation{darab2011eclectic}
\citation{Kapp:2004:WWE:980823.980827}
\citation{chapnick2000you}
\citation{haney2002assessing}
\citation{kaur2004assessment}
\citation{aydin2005measuring}
\citation{haney2002assessing}
\citation{kaur2004assessment}
\citation{keramati2011role}
\citation{doculanelearning}
\gdef \LT@ii {\LT@entry 
    {3}{41.25273pt}\LT@entry 
    {3}{76.41869pt}\LT@entry 
    {3}{90.64507pt}\LT@entry 
    {3}{104.87144pt}\LT@entry 
    {3}{90.64507pt}}
\@writefile{lot}{\contentsline {table}{\numberline {3.1}{Kriteria Penentuan model \textit  {e-learning readiness}}}{22}}
\newlabel{tab:kriteria-sebelum}{{3.1}{22}}
\newlabel{RF1}{25}
\@writefile{lof}{\contentsline {figure}{\numberline {3.5}{\ignorespaces Struktur Hirarki Keputusan}}{25}}
\newlabel{fig:hirarki-sebelum}{{3.5}{25}}
\gdef \LT@iii {\LT@entry 
    {3}{41.25273pt}\LT@entry 
    {3}{76.41869pt}\LT@entry 
    {3}{90.64507pt}\LT@entry 
    {3}{104.87144pt}\LT@entry 
    {3}{90.64507pt}}
\@writefile{lot}{\contentsline {table}{\numberline {3.2}{\ignorespaces Daftar Penguji Ahli}}{26}}
\newlabel{tab:expert}{{3.2}{26}}
\@writefile{lot}{\contentsline {table}{\numberline {3.3}{Hasil \textit  {Expert Review} Kriteria dan Sub Kriteria}}{26}}
\newlabel{tab:rev}{{3.3}{26}}
\citation{saekow2011learning}
\citation{rohayani2015literature}
\citation{djamaris2012implementation}
\citation{watkins2004assessing}
\citation{mafenya2013investigation}
\citation{haney2002assessing}
\citation{kaur2004assessment}
\citation{mafenya2013investigation}
\citation{eslaminejad2010assessment}
\citation{aydin2005measuring}
\citation{haney2002assessing}
\citation{doculanelearning}
\citation{alshaher2013mckinsey}
\citation{njihia2014learningji }
\citation{watkins2004assessing}
\citation{wattakiecharoen2013learning}
\citation{mafenya2013investigation}
\citation{njihia2014learning}
\citation{agboola2006assessing}
\citation{eslaminejad2010assessment}
\citation{aydin2005measuring}
\citation{machado2007developing}
\citation{saekow2011learning}
\citation{ali2008barriers}
\citation{djamaris2012implementation}
\citation{anderson2002learning}
\citation{aydin2005measuring}
\citation{borotis2004learning}
\citation{broadbent2001tips}
\citation{chapnick2000you}
\citation{darab2011eclectic}
\citation{doculanelearning}
\citation{haney2002assessing}
\citation{kaur2004assessment}
\citation{keramati2011role}
\citation{machado2007developing}
\citation{njihia2014learning}
\citation{rosenberg2001learning}
\citation{saekow2011learning}
\citation{watkins2004assessing}
\citation{wibowo2015redefining}
\citation{rohayani2015literature}
\citation{aydin2005measuring}
\citation{haney2002assessing}
\citation{watkins2004assessing}
\citation{njihia2014learning}
\citation{doculanelearning}
\citation{haney2002assessing}
\citation{kaur2004assessment}
\citation{njihia2014learning}
\citation{watkins2004assessing}
\citation{kaur2004assessment}
\citation{keramati2011role}
\citation{njihia2014learning}
\citation{darab2011eclectic}
\citation{chapnick2000you}
\citation{haney2002assessing}
\citation{kaur2004assessment}
\gdef \LT@iv {\LT@entry 
    {3}{41.25273pt}\LT@entry 
    {3}{76.41869pt}\LT@entry 
    {3}{90.64507pt}\LT@entry 
    {3}{104.87144pt}\LT@entry 
    {3}{90.64507pt}}
\@writefile{lot}{\contentsline {table}{\numberline {3.4}{Kriteria Penentuan model \textit  {e-learning readiness}}}{30}}
\newlabel{tab:kriteria}{{3.4}{30}}
\newlabel{RF2}{33}
\@writefile{lof}{\contentsline {figure}{\numberline {3.6}{\ignorespaces Struktur Hirarki Keputusan}}{33}}
\newlabel{fig:hirarki}{{3.6}{33}}
\@writefile{toc}{\contentsline {subsubsection}{Penilaian Kriteria, Sub Kriteria, dan Alternatif}{34}}
\@writefile{lot}{\contentsline {table}{\numberline {3.5}{\ignorespaces Contoh Entri Matriks Perbandingan}}{34}}
\newlabel{tab:pairwise-comparison}{{3.5}{34}}
\@writefile{lot}{\contentsline {table}{\numberline {3.6}{\ignorespaces Contoh \textit  {Matrix Comparisons}}}{35}}
\newlabel{tab:pairwise-matrix}{{3.6}{35}}
\@writefile{toc}{\contentsline {subsubsection}{Uji Konsistensi}{35}}
\@writefile{toc}{\contentsline {subsubsection}{Fuzzifikasi}{36}}
\@writefile{lot}{\contentsline {table}{\numberline {3.7}{\ignorespaces Contoh Hasil Fuzzifikasi}}{36}}
\newlabel{tab:pairwise-fuzzy}{{3.7}{36}}
\@writefile{toc}{\contentsline {subsubsection}{Komputasi Secara Fuzzy}{36}}
\@writefile{lot}{\contentsline {table}{\numberline {3.8}{\ignorespaces Contoh Total Bobot Kriteria}}{37}}
\newlabel{tab:total-fuzzy}{{3.8}{37}}
\@writefile{lot}{\contentsline {table}{\numberline {3.9}{\ignorespaces Contoh Normalisasi Bobot \textit  {Fuzzy} dari Kriteria}}{37}}
\newlabel{tab:normal-fuzzy}{{3.9}{37}}
\@writefile{toc}{\contentsline {subsubsection}{Defuzzifikasi}{37}}
\@writefile{toc}{\contentsline {subsubsection}{Perhitungan Bobot Alternatif}{38}}
\@writefile{toc}{\contentsline {subsubsection}{Pengurutan Model E-Learning Readiness}{38}}
\@writefile{lot}{\contentsline {table}{\numberline {3.10}{\ignorespaces \textit  {Ranking Model E-Learning Readiness}}}{38}}
\newlabel{tab:rank}{{3.10}{38}}
\@writefile{toc}{\contentsline {subsubsection}{Evaluasi E-Learning Readiness}{38}}
\@writefile{lof}{\contentsline {figure}{\numberline {3.7}{\ignorespaces Diagram Alur Evaluasi \textit  {E-Learning Readiness}}}{40}}
\newlabel{fig:eval}{{3.7}{40}}
\@writefile{toc}{\contentsline {subsubsection}{Use Case Diagram}{40}}
\@writefile{lot}{\contentsline {table}{\numberline {3.11}{\ignorespaces Deskripsi Aktor}}{40}}
\newlabel{tab:aktor}{{3.11}{40}}
\citation{booch2005unified}
\@writefile{lof}{\contentsline {figure}{\numberline {3.8}{\ignorespaces Use Case Diagram Sistem}}{41}}
\newlabel{fig:use-case}{{3.8}{41}}
\@writefile{toc}{\contentsline {subsubsection}{Class Diagram}{42}}
\newlabel{RF3}{43}
\@writefile{lof}{\contentsline {figure}{\numberline {3.9}{\ignorespaces Class Diagram Sistem}}{43}}
\newlabel{fig:class}{{3.9}{43}}
\@writefile{toc}{\contentsline {subsubsection}{Activity Diagram}{44}}
\@writefile{toc}{\contentsline {subsubsection}{Kebutuhan Perangkat Lunak}{44}}
\@writefile{toc}{\contentsline {subsubsection}{Kebutuhan Perangkat Keras}{44}}
\@writefile{toc}{\contentsline {subsection}{\numberline {3.1.4}Implementasi}{44}}
\@writefile{lof}{\contentsline {figure}{\numberline {3.10}{\ignorespaces Modul Get Model}}{45}}
\newlabel{fig:Imp-0}{{3.10}{45}}
\@writefile{toc}{\contentsline {subsection}{\numberline {3.1.5}Pengujian Sistem}{45}}
\@writefile{toc}{\contentsline {subsection}{\numberline {3.1.6}Pengolahan Data Pengujian}{45}}
\@writefile{toc}{\contentsline {subsection}{\numberline {3.1.7}Penarikan Kesimpulan}{45}}
\@setckpt{Metodologi}{
\setcounter{page}{46}
\setcounter{equation}{0}
\setcounter{enumi}{4}
\setcounter{enumii}{6}
\setcounter{enumiii}{0}
\setcounter{enumiv}{0}
\setcounter{footnote}{0}
\setcounter{mpfootnote}{0}
\setcounter{part}{0}
\setcounter{chapter}{3}
\setcounter{section}{1}
\setcounter{subsection}{7}
\setcounter{subsubsection}{0}
\setcounter{paragraph}{0}
\setcounter{subparagraph}{0}
\setcounter{figure}{10}
\setcounter{table}{11}
\setcounter{float@type}{8}
\setcounter{algorithm}{0}
\setcounter{ALG@line}{0}
\setcounter{ALG@rem}{0}
\setcounter{ALG@nested}{0}
\setcounter{ALG@Lnr}{2}
\setcounter{ALG@blocknr}{10}
\setcounter{ALG@storecount}{0}
\setcounter{ALG@tmpcounter}{0}
\setcounter{parentequation}{0}
\setcounter{r@tfl@t}{3}
\setcounter{LT@tables}{4}
\setcounter{LT@chunks}{3}
}
