\relax 
\citation{wibowo2015redefining}
\citation{darab2011eclectic}
\citation{watkins2013learning}
\citation{wibowo2015redefining}
\citation{saaty2008decision}
\citation{tzeng2011multiple}
\@writefile{toc}{\contentsline {chapter}{\numberline {I}Pendahuluan}{1}}
\@writefile{lof}{\addvspace {10\p@ }}
\@writefile{lot}{\addvspace {10\p@ }}
\@writefile{toc}{\contentsline {section}{\numberline {1.1}Latar Belakang}{1}}
\citation{aydin2005measuring}
\citation{rosenberg2001learning}
\citation{haney2002assessing}
\citation{watkins2004assessing}
\citation{kaur2004assessment}
\citation{njihia2014learning}
\citation{doculanelearning}
\citation{alshaher2013mckinsey}
\@writefile{toc}{\contentsline {section}{\numberline {1.2}Perumusan Masalah}{2}}
\@writefile{toc}{\contentsline {section}{\numberline {1.3}Tujuan}{2}}
\@writefile{toc}{\contentsline {section}{\numberline {1.4}Metode Penyelesaian Masalah}{3}}
\@writefile{toc}{\contentsline {section}{\numberline {1.5}Sistematika Penulisan}{4}}
\@setckpt{Pendahuluan}{
\setcounter{page}{5}
\setcounter{equation}{0}
\setcounter{enumi}{5}
\setcounter{enumii}{0}
\setcounter{enumiii}{0}
\setcounter{enumiv}{0}
\setcounter{footnote}{0}
\setcounter{mpfootnote}{0}
\setcounter{part}{0}
\setcounter{chapter}{1}
\setcounter{section}{5}
\setcounter{subsection}{0}
\setcounter{subsubsection}{0}
\setcounter{paragraph}{0}
\setcounter{subparagraph}{0}
\setcounter{figure}{0}
\setcounter{table}{0}
\setcounter{float@type}{8}
\setcounter{algorithm}{0}
\setcounter{ALG@line}{0}
\setcounter{ALG@rem}{0}
\setcounter{ALG@nested}{0}
\setcounter{ALG@Lnr}{2}
\setcounter{ALG@blocknr}{10}
\setcounter{ALG@storecount}{0}
\setcounter{ALG@tmpcounter}{0}
\setcounter{parentequation}{0}
\setcounter{r@tfl@t}{0}
\setcounter{LT@tables}{0}
\setcounter{LT@chunks}{0}
}
